{
  "$schema": "https://aka.ms/winget-packages.schema.2.0.json",
  "CreationDate": "2023-02-09T23:51:49.095-00:00",
  "Sources": [
    {
      "Packages": [
        {
          "PackageIdentifier": "AgileBits.1Password"
        },
        {
          "PackageIdentifier": "suse.RancherDesktop"
        },
        {
          "PackageIdentifier": "Microsoft.VisualStudio.2022.Community"
        },
        {
          "PackageIdentifier": "7zip.7zip"
        },
        {
          "PackageIdentifier": "Amazon.Kindle"
        },
        {
          "PackageIdentifier": "Discord.Discord"
        },
        {
          "PackageIdentifier": "Figma.Figma"
        },
        {
          "PackageIdentifier": "Mozilla.Firefox.DeveloperEdition"
        },
        {
          "PackageIdentifier": "GnuPG.GnuPG"
        },
        {
          "PackageIdentifier": "Google.CloudSDK"
        },
        {
          "PackageIdentifier": "GnuPG.Gpg4win"
        },
        {
          "PackageIdentifier": "Logitech.CameraSettings"
        },
        {
          "PackageIdentifier": "Microsoft.WindowsTerminal"
        },
        {
          "PackageIdentifier": "JetBrains.Toolbox"
        },
        {
          "PackageIdentifier": "Notion.Notion"
        },
        {
          "PackageIdentifier": "SlackTechnologies.Slack"
        },
        {
          "PackageIdentifier": "Microsoft.PowerToys"
        },
        {
          "PackageIdentifier": "GitHub.cli"
        },
        {
          "PackageIdentifier": "Amazon.WorkspacesClient"
        },
        {
          "PackageIdentifier": "Microsoft.VisualStudioCode"
        },
        {
          "PackageIdentifier": "Google.Chrome"
        },
        {
          "PackageIdentifier": "OpenVPNTechnologies.OpenVPN"
        },
        {
          "PackageIdentifier": "Zoom.Zoom"
        },
        {
          "PackageIdentifier": "dotPDNLLC.paintdotnet"
        },
        {
          "PackageIdentifier": "Microsoft.VCRedist.2005.x86"
        },
        {
          "PackageIdentifier": "Microsoft.VCRedist.2005.x64"
        },
        {
          "PackageIdentifier": "Microsoft.VCRedist.2008.x86"
        },
        {
          "PackageIdentifier": "Microsoft.VCRedist.2008.x64"
        },
        {
          "PackageIdentifier": "Microsoft.VCRedist.2010.x86"
        },
        {
          "PackageIdentifier": "Microsoft.VCRedist.2010.x64"
        },
        {
          "PackageIdentifier": "Microsoft.VCRedist.2012.x86"
        },
        {
          "PackageIdentifier": "Microsoft.VCRedist.2012.x64"
        },
        {
          "PackageIdentifier": "Microsoft.VCRedist.2013.x86"
        },
        {
          "PackageIdentifier": "Microsoft.VCRedist.2013.x64"
        },
        {
          "PackageIdentifier": "Microsoft.VCRedist.2015+.x86"
        },
        {
          "PackageIdentifier": "Microsoft.VCRedist.2015+.x64"
        }
      ],
      "SourceDetails": {
        "Argument": "https://cdn.winget.microsoft.com/cache",
        "Identifier": "Microsoft.Winget.Source_8wekyb3d8bbwe",
        "Name": "winget",
        "Type": "Microsoft.PreIndexed.Package"
      }
    },
    {
      "Packages": [
        {
          "PackageIdentifier": "9PGCV4V3BK4W"
        }
      ],
      "SourceDetails": {
        "Argument": "https://storeedgefd.dsx.mp.microsoft.com/v9.0",
        "Identifier": "StoreEdgeFD",
        "Name": "msstore",
        "Type": "Microsoft.Rest"
      }
    }
  ],
  "WinGetVersion": "1.3.2691"
}